Top 10 Names • nzbabynames
…
names <- nzbabynames

names <- names %>% 
  group_by(Sex, Year) %>% 
  arrange(-Count) %>% 
  mutate(Rank = seq_along(Count))

names
#> # A tibble: 66,653 x 5
#> # Groups:   Sex, Year [236]
#>     Year Sex   Name  Count  Rank
#>    <int> <chr> <chr> <int> <int>
#>  1  1947 Male  John   1628     1
#>  2  1948 Male  John   1575     1
#>  3  1946 Male  John   1561     1
#>  4  1963 Male  David  1513     1
#>  5  1949 Male  John   1504     1
#>  6  1958 Male  Peter  1484     1
#>  7  1962 Male  David  1478     1
#>  8  1956 Male  Peter  1451     1
#>  9  1957 Male  Peter  1431     1
#> 10  1950 Male  John   1403     1
#> # ... with 66,643 more rows
…
